<?xml version="1.0" standalone="no"?>
<!DOCTYPE svg PUBLIC "-//W3C//DTD SVG 1.1//EN" "http://www.w3.org/Graphics/SVG/1.1/DTD/svg11.dtd" >
<!--
2019-3-19: Created with FontForge (http://fontforge.org)
-->
<svg xmlns="http://www.w3.org/2000/svg" xmlns:xlink="http://www.w3.org/1999/xlink" version="1.1">
<metadata>
Created by FontForge 20170731 at Tue Mar 19 18:46:25 2019
 By root

</metadata>
<defs>
<font id="Flaticon" horiz-adv-x="512" >
  <font-face 
    font-family="Flaticon"
    font-weight="400"
    font-stretch="normal"
    units-per-em="512"
    panose-1="2 0 5 3 0 0 0 0 0 0"
    ascent="448"
    descent="-64"
    bbox="-0.000541589 -64.0012 512.204 448.001"
    underline-thickness="25.6"
    underline-position="-51.2"
    unicode-range="U+0020-F103"
  />
    <missing-glyph />
    <glyph glyph-name="space" unicode=" " horiz-adv-x="200" 
 />
    <glyph glyph-name="003-deadline" unicode="&#xf102;" 
d="M437.288 372.876c23.3223 -23.3389 41.9287 -50.96 54.7949 -81.3496c26.8281 -63.7148 26.8281 -135.552 0 -199.267c-25.958 -61.3535 -74.791 -110.186 -136.147 -136.141c-63.7119 -26.8271 -135.553 -26.8271 -199.268 0
c-61.3535 25.959 -110.186 74.791 -136.141 136.148c-26.8232 63.7148 -26.8232 135.552 0 199.268c1.84277 4.33887 6.85645 6.36328 11.1953 4.52148c4.33496 -1.8418 6.35938 -6.85254 4.51758 -11.1914c-25.0371 -59.4551 -25.0371 -126.497 0 -185.952
c24.2197 -57.2881 69.8125 -102.882 127.097 -127.097c59.46 -25.0381 126.497 -25.0381 185.953 0c57.2881 24.2148 102.881 69.8086 127.097 127.097c25.0371 59.4551 25.0371 126.497 0 185.952c-24.2158 57.2881 -69.8086 102.877 -127.097 127.097
c-80.127 33.7871 -172.289 21.374 -240.621 -32.4131h19.6982c2.25098 0.0078125 4.41406 -0.880859 6.00977 -2.47266c3.38672 2.23438 6.91211 4.2627 10.417 6.30371c0.202148 0.206055 0.420898 0.396484 0.647461 0.579102
c0.213867 0.119141 0.452148 0.119141 0.666992 0.21875c7.71289 4.49805 15.6885 8.52344 23.8818 12.0645c63.8066 26.9268 136.533 22.4648 196.564 -12.0645c0.213867 -0.0996094 0.400391 -0.0673828 0.666992 -0.21875
c0.265625 -0.154297 0.408203 -0.412109 0.654297 -0.579102c33.2588 -19.1104 60.8457 -46.6963 79.9521 -79.9512c0.202148 -0.207031 0.392578 -0.424805 0.571289 -0.651367c0.119141 -0.210938 0.119141 -0.453125 0.222656 -0.663086
c39.7773 -68.1016 39.7773 -152.349 0 -220.45c-0.103516 -0.214844 -0.103516 -0.453125 -0.222656 -0.666992c-0.257812 -0.380859 -0.540039 -0.742188 -0.849609 -1.08008c-19.0908 -33.0723 -46.585 -60.5029 -79.6973 -79.5186
c-0.202148 -0.206055 -0.420898 -0.401367 -0.647461 -0.580078c-0.297852 -0.138672 -0.603516 -0.257812 -0.913086 -0.365234c-7.63379 -4.44922 -15.5254 -8.43555 -23.6357 -11.9404c-63.707 -26.8682 -136.303 -22.4492 -196.286 11.9404
c-0.313477 0.111328 -0.623047 0.238281 -0.928711 0.381836c-0.262695 0.154297 -0.40918 0.412109 -0.655273 0.583008c-33.1123 19.0156 -60.6025 46.4512 -79.6895 79.5234c-0.30957 0.333008 -0.595703 0.694336 -0.849609 1.0752
c-0.119141 0.214844 -0.119141 0.453125 -0.222656 0.663086c-4.49707 7.71387 -8.52246 15.6885 -12.0635 23.8867c-26.9238 63.7979 -22.457 136.517 12.0635 196.548c0.103516 0.209961 0.103516 0.452148 0.222656 0.663086
c0.178711 0.230469 0.373047 0.448242 0.579102 0.65918c9.56348 16.5176 21.2148 31.7344 34.665 45.2754c4.8623 4.85449 9.92773 9.42383 15.1562 13.7744h-28.9316c-4.71191 0 -8.53125 3.81934 -8.53125 8.53125v42.6514c0 4.70801 3.81934 8.52734 8.53125 8.52734
s8.53125 -3.81934 8.53125 -8.52734v-24.0127c73.2656 60.6025 174.226 75.2627 261.708 38.0107c30.3809 -12.8662 57.9941 -31.4688 81.333 -54.791zM176.636 380.554v-0.0244141c-5.19238 -2.19141 -10.21 -4.69238 -15.1729 -7.29199l16.9033 -29.3809
c1.54883 -2.63965 1.56445 -5.90723 0.0400391 -8.55859c-1.52441 -2.65625 -4.35449 -4.29102 -7.41602 -4.2832c-3.06055 0.0078125 -5.88281 1.65137 -7.39551 4.31445l-16.9072 29.2734c-25.5537 -15.9863 -47.1367 -37.5703 -63.123 -63.1191l29.2764 -16.9072
c2.66016 -1.5127 4.30762 -4.33594 4.31543 -7.39648c0.00390625 -3.06055 -1.62793 -5.89062 -4.2832 -7.41504c-2.65625 -1.52441 -5.92285 -1.5127 -8.5625 0.0351562l-29.3525 16.9434c-2.59277 -4.9502 -5.10156 -9.99219 -7.29297 -15.1846
c-9.53516 -22.5605 -14.9102 -46.665 -15.8633 -71.1387h50.9717c4.71289 0 8.53125 -3.81836 8.53125 -8.53125c0 -4.71191 -3.81836 -8.53027 -8.53125 -8.53027h-50.9717c0.953125 -24.4785 6.32812 -48.5869 15.8711 -71.1465
c2.17578 -5.18848 4.73633 -10.2109 7.29688 -15.1768l29.376 16.9072c2.63965 1.54785 5.90723 1.55957 8.56348 0.0351562c2.65137 -1.52344 4.28711 -4.35059 4.2793 -7.41504c-0.0078125 -3.06055 -1.65137 -5.88281 -4.31543 -7.39551l-29.2734 -16.9033
c15.9863 -25.5537 37.5703 -47.1377 63.124 -63.124l16.9033 29.2734c2.37402 4.04492 7.56641 5.41895 11.623 3.07617c4.06152 -2.3457 5.4707 -7.53027 3.15234 -11.6035l-16.9395 -29.3447c4.94629 -2.59961 9.98828 -5.10938 15.1807 -7.2998
c22.5645 -9.54004 46.665 -14.915 71.1426 -15.8682v50.9766c0 4.71191 3.81934 8.53125 8.52734 8.53125c4.71191 0 8.53125 -3.81934 8.53125 -8.53125v-50.9766c24.4814 0.953125 48.5859 6.33203 71.1504 15.876c5.19238 2.1748 10.21 4.73145 15.1729 7.29199
l-16.9395 29.3447c-1.54785 2.63965 -1.56445 5.90723 -0.0400391 8.5625c1.52441 2.65234 4.35547 4.28809 7.41602 4.28027c3.06055 -0.00878906 5.88281 -1.65137 7.39551 -4.31543l16.9434 -29.2373c25.5488 15.9824 47.1328 37.5693 63.1191 63.1191l-29.2734 16.9072
c-2.65918 1.5127 -4.30664 4.33496 -4.31445 7.39648c-0.0078125 3.06055 1.62695 5.89062 4.2832 7.41504c2.65137 1.52441 5.91895 1.50879 8.5625 -0.0400391l29.3486 -16.9385c2.59668 4.94629 5.10156 9.98828 7.29297 15.1846
c9.53906 22.5596 14.9141 46.6641 15.8672 71.1387h-50.9766c-4.70801 0 -8.52637 3.81836 -8.52637 8.53027c0 4.71289 3.81836 8.53125 8.52637 8.53125h50.9766c-0.953125 24.4775 -6.33203 48.582 -15.875 71.1465c-2.17578 5.18457 -4.73242 10.2109 -7.29297 15.1768
l-29.3408 -16.9434c-2.64355 -1.54785 -5.91113 -1.55957 -8.5625 -0.0351562c-2.65625 1.52441 -4.29102 4.35449 -4.2832 7.41504s1.65527 5.88379 4.31445 7.39648l29.2422 16.9385c-15.9863 25.5537 -37.5703 47.1377 -63.124 63.124l-16.9072 -29.2773
c-1.5127 -2.66016 -4.33496 -4.30762 -7.39551 -4.31152c-3.06055 -0.0078125 -5.8916 1.62793 -7.41602 4.2793c-1.52441 2.65625 -1.50781 5.92285 0.0400391 8.56348l16.9395 29.3525c-4.94727 2.5918 -9.98828 5.10059 -15.1846 7.29199
c-22.5605 9.53613 -46.6611 14.9111 -71.1387 15.8672v-50.9756c0 -4.71191 -3.81934 -8.53125 -8.53125 -8.53125c-4.70801 0 -8.52734 3.81934 -8.52734 8.53125v50.9756c-24.4814 -0.944336 -48.5859 -6.31543 -71.1504 -15.8506zM176.636 380.554zM146.895 198.943
c13.5088 12.9102 34.791 12.8896 48.2764 -0.0439453l33.1396 -33.1318l95.5371 116.01c7.68555 9.61816 19.9561 14.3506 32.1074 12.3857c12.1553 -1.96973 22.3066 -10.3301 26.5615 -21.8818c4.25977 -11.5518 1.96094 -24.502 -6.00586 -33.8857l-119.419 -145.013
c-6.12988 -7.43555 -15.1133 -11.9336 -24.7363 -12.3857h-1.63184c-9.05078 -0.0283203 -17.7402 3.56836 -24.1201 9.99219l-59.709 59.709c-13.3232 13.3232 -13.3232 34.9229 0 48.2451zM222.86 147.105l-39.7852 39.7861
c-4.28418 4.43359 -10.624 6.21191 -16.5898 4.65234c-5.96289 -1.56445 -10.623 -6.2207 -12.1836 -12.1875c-1.56055 -5.96289 0.21875 -12.3066 4.65234 -16.5898l59.71 -59.709c3.19141 -3.21191 7.53418 -5.01074 12.0596 -4.99805l0.71875 0.0078125
c4.84375 0.202148 9.36914 2.45312 12.4531 6.19238l119.42 145.009c2.88574 3.48535 4.25879 7.97949 3.81055 12.4805c-0.897461 9.37305 -9.22168 16.2451 -18.5947 15.3555c-4.51367 -0.416992 -8.67383 -2.62793 -11.5479 -6.13281l-101.508 -123.259
c-1.52832 -1.85742 -3.77051 -2.98047 -6.17676 -3.0957c-2.40918 -0.163086 -4.76367 0.75 -6.43848 2.48828zM222.86 147.105z" />
    <glyph glyph-name="004-money-bag" unicode="&#xf103;" 
d="M273.244 126.643c24.6953 0 44.8135 -20.1182 44.8135 -44.8135c0 -24.4814 -19.6924 -44.4932 -44.1748 -44.8125h-0.319336h-2.12891v-18.2021c0 -7.02539 -5.74805 -12.7734 -12.7734 -12.7734s-12.7734 5.74805 -12.7734 12.7734v18.2021h-25.1211
c-7.02539 0 -12.7734 5.74805 -12.7734 12.7734s5.74805 12.7734 12.7734 12.7734h52.4775c10.6445 0 19.2666 8.62109 19.2666 19.2656s-8.62207 19.2666 -19.2666 19.2666h-29.2725c-24.6953 0 -44.8135 20.1182 -44.8135 44.8135s20.1182 44.8135 44.8135 44.8135
h1.80957v17.7764c0 7.02539 5.74805 12.7734 12.7734 12.7734s12.7734 -5.74805 12.7734 -12.7734v-17.7764h24.1631c7.02539 0 12.7734 -5.74805 12.7734 -12.7734s-5.74805 -12.7734 -12.7734 -12.7734h-51.5195c-10.6445 0 -19.2666 -8.62207 -19.2666 -19.2666
s8.62207 -19.2666 19.2666 -19.2666h29.2725zM450.581 155.596c16.8184 -38.8525 25.334 -79.4082 25.334 -120.495c0 -54.6064 -44.4941 -99.1006 -99.0996 -99.1006h-241.631c-54.6055 0 -99.0996 44.4941 -99.0996 99.1006c0 41.0869 8.51562 81.6426 25.334 120.495
c13.4121 30.8691 32.04 60.7803 55.3516 88.7754c27.7812 33.3174 55.457 55.8838 69.9336 66.6348l-58.5449 88.4551c-3.29883 5.00293 -2.66016 11.709 1.49023 15.9668c19.9053 20.4375 40.2363 30.0176 64.0801 30.0176c18.8408 0 38.3203 -5.74805 63.6543 -15.0088
c1.91602 -0.745117 3.83203 -1.06445 6.06738 -1.06445c7.34473 0 16.3926 3.83203 25.9727 7.77051c12.1348 5.10938 26.0791 10.8574 41.3008 10.8574c16.6055 0 31.5078 -6.70605 45.5586 -20.4375c4.15137 -3.93848 5.00293 -10.1123 2.3418 -15.1152l-54.2871 -100.696
c14.3701 -10.5381 42.5781 -33.3174 70.8916 -67.3799c23.418 -27.9951 41.9395 -57.9062 55.3516 -88.7754zM155.409 404.783l55.6709 -84.0918h88.9883l51.0938 94.9492c-8.72852 6.17383 -15.6475 7.02539 -20.5439 7.02539
c-10.1123 0 -20.5439 -4.36426 -31.5078 -8.94141c-11.3896 -4.79004 -23.3115 -9.68652 -35.7656 -9.68652c-5.10938 0 -10.1123 0.851562 -14.7959 2.55469c-22.6729 8.40918 -39.7041 13.5186 -54.8193 13.5186c-14.1572 0 -25.9727 -4.68359 -38.3203 -15.3281z
M376.815 -38.4531c40.5547 0 73.5527 32.998 73.3398 73.5537c0 68.3369 -24.9082 132.949 -74.1914 192.346c-31.082 37.5752 -62.5898 60.9932 -72.2764 67.6992h-95.5879c-9.58008 -6.8125 -41.1943 -30.124 -72.2764 -67.6992
c-49.1768 -59.3965 -74.1914 -124.115 -74.1914 -192.346c0 -40.5557 32.998 -73.5537 73.5527 -73.5537h241.631z" />
    <glyph glyph-name="002-danger" unicode="&#xf101;" 
d="M505.403 41.6064c8.55176 -14.1807 8.80469 -31.9482 0.662109 -46.3691c-8.14551 -14.4209 -23.4922 -23.3789 -40.0527 -23.3789h-420.027c-16.5605 0 -31.9062 8.95801 -40.0518 23.3779c-8.14258 14.4199 -7.88965 32.1875 0.661133 46.3701l210.014 348.291
c8.27441 13.7217 23.3672 22.2451 39.3906 22.2451s31.1162 -8.52344 39.3896 -22.2441zM477.039 11.6279c2.24219 3.96875 2.17188 8.86035 -0.182617 12.7637l-210.014 348.292c-2.27734 3.77734 -6.43262 6.12402 -10.8428 6.12402
c-4.41113 0 -8.56641 -2.34668 -10.8438 -6.12402l-210.016 -348.292c-2.35254 -3.90234 -2.42285 -8.79492 -0.180664 -12.7646c2.24121 -3.96875 6.46582 -6.43457 11.0254 -6.43457h420.027c4.55957 0 8.78418 2.4668 11.0264 6.43555zM256.154 274.995
c12.0615 0 22.2666 -6.80469 22.2666 -18.8662c0 -36.8027 -4.3291 -89.6865 -4.3291 -126.489c0 -9.58691 -10.5146 -13.6064 -17.9365 -13.6064c-9.89648 0 -18.2471 4.01953 -18.248 13.6064c0 36.8037 -4.3291 89.6875 -4.3291 126.489
c0 12.0625 9.89551 18.8662 22.5762 18.8662zM256.465 94.6943c12.6787 0 23.5049 -10.8242 23.5049 -23.8145c0 -12.6797 -10.8252 -23.8135 -23.5049 -23.8135c-13.6074 0 -23.8135 11.1338 -23.8135 23.8135c0 12.9902 10.207 23.8145 23.8135 23.8145z" />
    <glyph glyph-name="001-check-mark" unicode="&#xf100;" 
d="M463.433 374.201l42.626 -42.54c7.92188 -7.86523 7.92188 -20.6963 0 -28.5322l-293.33 -293.358c-7.89453 -7.7793 -20.6104 -7.7793 -28.418 0l-178.455 179.632c-7.80762 7.83594 -7.80762 20.6387 0 28.417l42.6553 42.626
c7.86426 7.86523 20.5811 7.86523 28.3887 0l121.735 -122.567l236.38 236.323c7.80762 7.83594 20.6104 7.83594 28.418 0z" />
  </font>
</defs></svg>
